<?xml version="1.0" standalone="no"?>
<!DOCTYPE svg PUBLIC "-//W3C//DTD SVG 20010904//EN"
 "http://www.w3.org/TR/2001/REC-SVG-20010904/DTD/svg10.dtd">
<svg version="1.0" xmlns="http://www.w3.org/2000/svg"
 width="512.000000pt" height="128.000000pt" viewBox="0 0 512.000000 128.000000"
 preserveAspectRatio="xMidYMid meet">

<g transform="translate(0.000000,128.000000) scale(0.100000,-0.100000)"
fill="#000000" stroke="none">
<path d="M774 1269 c-76 -39 -49 -169 35 -169 62 0 101 37 101 95 0 56 -83
101 -136 74z"/>
<path d="M0 765 l0 -485 80 0 80 0 2 208 3 207 193 3 192 2 0 65 0 65 -195 0
-196 0 3 143 3 142 233 3 232 2 0 65 0 65 -315 0 -315 0 0 -485z"/>
<path d="M1780 765 l0 -485 75 0 75 0 0 203 c0 233 9 284 62 334 47 44 72 54
133 54 56 0 98 -16 128 -49 40 -44 46 -88 47 -319 l0 -223 76 0 76 0 -4 253
c-5 282 -12 317 -73 380 -58 59 -117 82 -215 81 -95 0 -136 -14 -193 -64 l-37
-32 0 176 0 176 -75 0 -75 0 0 -485z"/>
<path d="M2895 1195 l-47 -55 -99 0 c-115 0 -142 -8 -169 -52 -20 -32 -20 -47
-18 -401 l3 -369 33 -29 32 -29 480 0 480 0 32 29 33 29 0 382 0 382 -33 29
c-31 28 -35 29 -140 29 l-108 0 -48 55 -47 55 -169 0 -168 0 -47 -55z m381
-100 l48 -55 113 0 113 0 0 -335 0 -335 -440 0 -440 0 2 333 3 332 112 3 112
3 52 54 52 55 113 0 113 0 47 -55z"/>
<path d="M3038 967 c-123 -35 -207 -159 -195 -287 14 -154 139 -260 291 -248
69 6 108 23 162 71 112 98 112 309 1 403 -72 61 -174 85 -259 61z m148 -123
c99 -47 119 -181 40 -260 -77 -77 -200 -61 -254 34 -78 140 69 295 214 226z"/>
<path d="M1217 986 c-109 -30 -180 -113 -180 -210 0 -126 69 -171 308 -201
122 -15 158 -40 153 -101 -4 -46 -46 -79 -113 -90 -94 -14 -175 21 -208 89
l-19 37 -70 0 -71 0 6 -42 c9 -65 52 -118 131 -158 67 -34 72 -35 185 -35 100
0 123 3 166 23 128 59 177 169 124 279 -35 72 -110 105 -277 124 -141 15 -172
32 -172 91 0 27 43 72 78 83 83 25 190 -10 219 -70 17 -35 17 -35 86 -35 l70
0 -6 42 c-3 23 -14 53 -25 67 -28 39 -98 89 -140 101 -61 18 -192 21 -245 6z"/>
<path d="M4649 984 c-101 -31 -192 -121 -221 -217 -21 -73 -16 -213 11 -281
29 -72 101 -148 167 -178 99 -43 250 -41 342 6 61 31 126 103 146 162 l15 44
-80 0 c-62 0 -79 -3 -79 -14 0 -21 -48 -74 -82 -92 -37 -19 -135 -20 -179 -1
-64 27 -103 80 -115 156 l-7 41 277 0 276 0 0 43 c0 157 -94 291 -234 332 -62
19 -176 18 -237 -1z m217 -123 c48 -22 83 -66 91 -116 l6 -35 -192 0 c-213 0
-208 -2 -172 68 35 68 91 101 171 101 33 0 72 -7 96 -18z"/>
<path d="M740 635 l0 -355 75 0 75 0 0 355 0 355 -75 0 -75 0 0 -355z"/>
<path d="M3674 973 c3 -10 66 -171 140 -358 l133 -339 -27 -61 c-32 -72 -53
-85 -142 -85 l-68 0 0 -65 0 -65 103 0 c136 1 174 17 210 91 24 48 357 885
357 895 0 2 -35 4 -77 4 l-78 0 -95 -270 c-52 -148 -97 -270 -101 -270 -3 0
-49 122 -103 270 l-99 270 -79 0 c-71 0 -79 -2 -74 -17z"/>
</g>
</svg>
